{
    "name": "Course",
    "fields": [
        {
            "fieldName": "name",
            "fieldType": "String"
        },
        {
            "fieldName": "code",
            "fieldType": "String"
        },
        {
            "fieldName": "level",
            "fieldType": "Integer"
        },
        {
            "fieldName": "credit",
            "fieldType": "Integer"
        },
        {
            "fieldName": "locale",
            "fieldType": "String"
        },
        {
            "fieldName": "status",
            "fieldType": "String"
        }
    ],
    "relationships": [
        {
            "relationshipType": "one-to-many",
            "otherEntityName": "grades",
            "otherEntityRelationshipName": "course",
            "relationshipName": "result"
        },
        {
            "relationshipType": "many-to-one",
            "otherEntityName": "department",
            "otherEntityRelationshipName": "courses",
            "relationshipName": "department",
            "otherEntityField": "id"
        }
    ],
    "changelogDate": "20190425123836",
    "entityTableName": "course",
    "dto": "mapstruct",
    "pagination": "no",
    "service": "serviceImpl",
    "jpaMetamodelFiltering": false,
    "fluentMethods": true,
    "clientRootFolder": "",
    "applications": "*"
}