{
    "name": "Department",
    "fields": [
        {
            "fieldName": "name",
            "fieldType": "String"
        }
    ],
    "relationships": [
        {
            "relationshipType": "one-to-many",
            "otherEntityName": "student",
            "otherEntityRelationshipName": "department",
            "relationshipName": "student"
        },
        {
            "relationshipType": "one-to-many",
            "otherEntityName": "course",
            "otherEntityRelationshipName": "department",
            "relationshipName": "courses"
        },
        {
            "relationshipType": "many-to-one",
            "otherEntityName": "faculty",
            "otherEntityRelationshipName": "department",
            "relationshipName": "faculty",
            "otherEntityField": "id"
        }
    ],
    "changelogDate": "20190425123834",
    "entityTableName": "department",
    "dto": "mapstruct",
    "pagination": "no",
    "service": "serviceImpl",
    "jpaMetamodelFiltering": false,
    "fluentMethods": true,
    "clientRootFolder": "",
    "applications": "*"
}