{
    "name": "Grades",
    "fields": [
        {
            "fieldName": "matno",
            "fieldType": "String"
        },
        {
            "fieldName": "ca",
            "fieldType": "Integer"
        },
        {
            "fieldName": "exam",
            "fieldType": "Integer"
        },
        {
            "fieldName": "total",
            "fieldType": "Integer"
        },
        {
            "fieldName": "grade",
            "fieldType": "String"
        },
        {
            "fieldName": "semester",
            "fieldType": "Integer"
        },
        {
            "fieldName": "year",
            "fieldType": "String"
        },
        {
            "fieldName": "attempt",
            "fieldType": "Integer"
        },
        {
            "fieldName": "status",
            "fieldType": "Boolean"
        }
    ],
    "relationships": [
        {
            "relationshipType": "many-to-one",
            "otherEntityName": "course",
            "otherEntityRelationshipName": "result",
            "relationshipName": "course",
            "otherEntityField": "id"
        }
    ],
    "changelogDate": "20190425123837",
    "entityTableName": "grades",
    "dto": "mapstruct",
    "pagination": "no",
    "service": "serviceImpl",
    "jpaMetamodelFiltering": false,
    "fluentMethods": true,
    "clientRootFolder": "",
    "applications": "*"
}